<?xml version="1.0" encoding="utf-8"?>
<!-- Generator: Adobe Illustrator 22.0.1, SVG Export Plug-In . SVG Version: 6.00 Build 0)  -->
<svg version="1.1" id="Layer_1" xmlns="http://www.w3.org/2000/svg" xmlns:xlink="http://www.w3.org/1999/xlink" x="0px" y="0px"
	 viewBox="0 0 269 72.7" style="enable-background:new 0 0 269 72.7;" xml:space="preserve">
<style type="text/css">
	.st0{fill:#FFFFFF;}
	.st1{filter:url(#Adobe_OpacityMaskFilter);}
	.st2{mask:url(#mask-2_2_);fill:#FFFFFF;}
	.st3{filter:url(#Adobe_OpacityMaskFilter_1_);}
	.st4{mask:url(#mask-4_2_);fill:#FFFFFF;}
	.st5{fill:#FFFFFF;stroke:#FFFFFF;stroke-width:0.3;}
</style>
<g id="Symbols">
	<g id="Navigation-_x2F_-Default" transform="translate(-100.000000, -27.000000)">
		<g id="Nav" transform="translate(100.000000, 19.000000)">
			<g id="Logo_x2F_WhiteSimple" transform="translate(0.000000, 8.000000)">
				<g id="Page-1">
					<path id="Fill-1" class="st0" d="M23.2,27.5h-4.1c-0.4,0-0.7,0.1-0.8,0.2c-0.1,0.1-0.2,0.4-0.2,0.8v13.6l0,0.5
						c0,1.1,0.7,1.7,1.9,1.9c0.3,0.1,0.5,0.2,0.5,0.3c0,0.2-0.1,0.3-0.4,0.3c-0.1,0-0.4,0-0.7-0.1c-0.2,0-0.6,0-1.3,0l-1.1,0L16,45
						c-0.4,0-0.8,0-1,0c-0.6,0.1-0.9,0.1-1,0.1c-0.3,0-0.4-0.1-0.4-0.3c0-0.1,0.2-0.2,0.5-0.3c0.7-0.1,1.2-0.3,1.5-0.6
						c0.3-0.3,0.4-0.8,0.4-1.6V28.6l0-0.4c0-0.3-0.1-0.5-0.2-0.6c-0.1-0.1-0.3-0.1-0.7-0.1h-3.8c-0.8,0-1.4,0.1-1.7,0.4
						c-0.4,0.3-0.6,0.9-0.8,1.7c-0.1,0.4-0.2,0.5-0.4,0.5C8.1,30.1,8,30,8,29.8c0-0.2,0.1-0.6,0.2-1.1C8.3,28,8.4,27.5,8.4,27
						c0-0.4,0.1-0.7,0.2-0.8C8.6,26.1,8.9,26,9.2,26h15.6c0.5,0,0.9,0.1,1,0.2c0.1,0.1,0.2,0.4,0.2,1c0,0.5,0,0.9,0.1,1.2
						c0,0.3,0.1,0.5,0.1,0.7c0,0.3-0.1,0.4-0.3,0.4c-0.2,0-0.3-0.1-0.3-0.4c-0.1-0.7-0.3-1.1-0.6-1.3C24.6,27.6,24,27.5,23.2,27.5"
						/>
					<path id="Fill-3" class="st0" d="M33.1,35.2h8.5c0.4,0,0.7,0,0.8-0.1c0.1-0.1,0.2-0.3,0.2-0.5v-4.9c0-1-0.1-1.7-0.4-2.1
						c-0.3-0.4-0.7-0.7-1.4-0.9c-0.3-0.1-0.4-0.2-0.4-0.3c0-0.2,0.1-0.2,0.4-0.2c0.2,0,0.5,0,1,0.1c0.6,0.1,1.3,0.1,2,0.1
						c1,0,1.7,0,2.1-0.1c0.3,0,0.4-0.1,0.5-0.1c0.2,0,0.3,0.1,0.3,0.3c0,0.2-0.1,0.2-0.3,0.3l-0.6,0.1c-0.3,0.1-0.5,0.3-0.7,0.6
						c-0.2,0.4-0.3,0.8-0.3,1.3v13.9c0,1,0.1,1.7,0.4,2.1c0.3,0.4,0.8,0.6,1.6,0.7c0.3,0,0.4,0.1,0.5,0.3c0,0.2-0.1,0.3-0.4,0.3
						c-0.2,0-0.4,0-0.7-0.1c-0.2,0-0.7-0.1-1.4-0.1l-1.1,0l-1.1,0c-0.2,0-0.4,0-0.7,0c-0.6,0-0.9,0.1-1,0.1c-0.2,0-0.4-0.1-0.3-0.3
						c0-0.2,0.2-0.3,0.5-0.3c1-0.2,1.5-1,1.5-2.5l0-0.6v-5.3c0-0.5,0-0.7-0.1-0.8c-0.1-0.1-0.4-0.1-0.9-0.1h-8.4
						c-0.5,0-0.9,0.1-1,0.2c-0.1,0.1-0.2,0.4-0.2,0.8v5.3c0,1,0.2,1.7,0.5,2.1c0.3,0.4,0.9,0.7,1.8,0.7c0.4,0,0.5,0.2,0.5,0.4
						c0,0.2-0.1,0.3-0.4,0.3c-0.1,0-0.4,0-0.7-0.1c-0.3,0-0.8-0.1-1.7-0.1l-1.2,0l-0.9,0c-0.2,0-0.5,0-0.9,0c-0.5,0-0.8,0.1-0.9,0.1
						c-0.2,0-0.4-0.1-0.4-0.3c0-0.2,0.1-0.3,0.4-0.3l0.7-0.2c0.4-0.1,0.7-0.4,0.9-1c0.2-0.5,0.2-1.5,0.2-2.8V29.2
						c0-0.8-0.2-1.4-0.5-1.8c-0.3-0.4-0.9-0.6-1.7-0.7c-0.3,0-0.4-0.1-0.4-0.3c0-0.2,0.1-0.3,0.4-0.3c0.2,0,0.5,0,0.9,0.1
						c0.7,0.1,1.6,0.1,2.6,0.1c0.7,0,1.3,0,1.9-0.1c0.3,0,0.5-0.1,0.6-0.1c0.3,0,0.4,0.1,0.4,0.3c0,0.2-0.1,0.3-0.4,0.3
						c-0.6,0.2-1.1,0.4-1.3,0.7c-0.2,0.3-0.3,0.8-0.3,1.5v5.2c0,0.5,0.1,0.9,0.2,1C32.2,35.1,32.5,35.2,33.1,35.2"/>
					<path id="Fill-5" class="st0" d="M54.1,28.5v5.8c0,0.4,0,0.7,0.1,0.8c0.1,0.1,0.3,0.1,0.7,0.1h2.2c1,0,1.8-0.1,2.4-0.2
						c0.5-0.1,0.8-0.2,1-0.4c0.2-0.2,0.3-0.6,0.4-1.2c0-0.2,0.2-0.4,0.4-0.3c0.2,0,0.3,0.1,0.3,0.4c0,0.1,0,0.2,0,0.3
						c-0.1,0.9-0.1,1.8-0.1,2.5c0,0.6,0,1.2,0.1,1.7c0,0.2,0,0.3,0,0.4c0,0.2-0.1,0.4-0.3,0.4c-0.2,0-0.3-0.1-0.4-0.3l-0.1-0.4
						c-0.1-0.6-0.3-1.1-0.7-1.3c-0.3-0.2-0.9-0.3-1.7-0.3h-3.1c-0.5,0-0.8,0-0.9,0.1c-0.2,0.1-0.2,0.3-0.2,0.6l0,0.5V43
						c0,0.8,0.1,1.3,0.4,1.5c0.3,0.2,1,0.3,2.2,0.3c3.7,0,6.1-0.8,7.1-2.5c0.1-0.2,0.2-0.3,0.3-0.3c0.2,0,0.3,0.1,0.3,0.4
						c0,0.6-0.3,1.4-1,2.2c-0.8,1-1.9,1.6-3.1,1.6c-0.3,0-0.6,0-1.1-0.1c-1.8-0.2-3.3-0.3-4.5-0.3c-1.7,0-2.8,0.1-3.5,0.2
						c-0.4,0.1-0.6,0.1-0.7,0.1c-0.3,0-0.5-0.1-0.5-0.3c0-0.2,0.1-0.3,0.4-0.3l0.5-0.2c0.7-0.2,1-0.9,1-2l0-0.9V30.2
						c0-1.4-0.1-2.3-0.4-2.8c-0.3-0.5-0.9-0.7-1.7-0.7c-0.3,0-0.4-0.1-0.4-0.3c0-0.3,0.2-0.4,0.6-0.4c0.2,0,0.6,0,0.9,0.1
						c1.3,0.2,3,0.2,4.9,0.2c1.2,0,2.2,0,3.1-0.1l2-0.1c0.6,0,0.9,0,1-0.1c0.3,0,0.4-0.1,0.6-0.1c0.3,0,0.5,0.1,0.5,0.4
						c0,0.1,0,0.2,0,0.3c0,0.1-0.1,0.5-0.1,1.1l-0.1,0.8c0,0.6-0.1,0.9-0.1,1c0,0.1-0.2,0.2-0.3,0.2c-0.2,0-0.3-0.1-0.3-0.4v-0.4
						c0-0.3-0.1-0.6-0.2-0.9c-0.2-0.4-0.5-0.7-1.1-0.9c-0.5-0.1-1.6-0.2-3-0.2h-2.2c-0.6,0-1,0.1-1.1,0.2
						C54.1,27.6,54.1,28,54.1,28.5"/>
					<g id="Group-9" transform="translate(65.460993, 0.000000)">
						<g id="Clip-8">
						</g>
						<defs>
							<filter id="Adobe_OpacityMaskFilter" filterUnits="userSpaceOnUse" x="8.4" y="25.5" width="20.7" height="20.4">
								<feColorMatrix  type="matrix" values="1 0 0 0 0  0 1 0 0 0  0 0 1 0 0  0 0 0 1 0"/>
							</filter>
						</defs>
						<mask maskUnits="userSpaceOnUse" x="8.4" y="25.5" width="20.7" height="20.4" id="mask-2_2_">
							<g class="st1">
								<polygon id="path-1_2_" class="st0" points="8.4,25.5 29.1,25.5 29.1,46 8.4,46 								"/>
							</g>
						</mask>
						<path id="Fill-7" class="st2" d="M18.1,26.6c-1.9,0-3.4,0.7-4.5,2.1c-1.1,1.4-1.6,3.4-1.6,6c0,3,0.7,5.5,2,7.3
							c1.4,1.9,3.1,2.8,5.3,2.8c2,0,3.5-0.8,4.7-2.3c1.2-1.6,1.8-3.6,1.8-6.2c0-1.5-0.3-3-0.8-4.4c-0.5-1.4-1.3-2.6-2.2-3.4
							C21.4,27.3,19.9,26.6,18.1,26.6 M19.1,25.5c3,0,5.4,0.9,7.2,2.6c1.8,1.7,2.8,4,2.8,6.9c0,3.1-1,5.7-2.8,7.8
							c-1.8,2.1-4.4,3.1-7.6,3.1c-3.1,0-5.6-0.9-7.4-2.7C9.3,41.4,8.4,39,8.4,36c0-1.3,0.2-2.6,0.7-3.9c0.5-1.3,1.1-2.4,1.9-3.2
							c0.9-1,2.1-1.8,3.5-2.4C16,25.8,17.5,25.5,19.1,25.5"/>
					</g>
					<path id="Fill-10" class="st0" d="M105.6,36.9l-1.9-4.4c-0.5-1-0.8-1.6-1-1.6c-0.1,0-0.3,0.3-0.6,1l-0.3,0.6l-1.7,3.8l-0.2,0.4
						c-0.1,0.1-0.1,0.3-0.1,0.4c0,0.3,0.3,0.5,1,0.5h4.3c0.4,0,0.5-0.1,0.5-0.3c0-0.1,0-0.1-0.1-0.2L105.6,36.9z M105.1,28l6.6,15
						c0.3,0.8,0.7,1.3,1.2,1.7c0.4,0.4,1,0.6,1.7,0.7c0.2,0,0.3,0.2,0.3,0.4c0,0.3-0.1,0.4-0.3,0.4c-0.1,0-0.3,0-0.6-0.1
						c-0.7-0.2-1.9-0.2-3.6-0.2c-1.7,0-2.8,0.1-3.4,0.2c-0.1,0-0.3,0.1-0.4,0.1c-0.3,0-0.4-0.1-0.4-0.4c0-0.1,0.1-0.2,0.3-0.3
						c0.5-0.1,0.8-0.4,1.1-0.7c0.3-0.3,0.5-0.7,0.5-1.1c0-0.5-0.4-1.7-1.3-3.5c-0.3-0.6-0.5-0.9-0.9-1c-0.3-0.1-1.4-0.1-3.3-0.1h-2
						l-1.3,0.2c-0.4,0.2-0.8,0.8-1.2,1.9l-0.4,1.1c-0.1,0.3-0.2,0.6-0.2,1c0,1.2,0.8,1.9,2.5,2.1c0.4,0,0.5,0.2,0.5,0.4
						c0,0.3-0.2,0.4-0.5,0.4c-0.2,0-0.4,0-0.7-0.1c-0.6-0.1-1.2-0.2-1.7-0.2c-0.5,0-1.2,0-2.2,0.1C94.7,46,94.2,46,94,46
						c-0.3,0-0.4-0.1-0.4-0.4c0-0.2,0.1-0.3,0.4-0.4c0.5-0.2,0.9-0.5,1.2-0.9c0.3-0.4,0.8-1.3,1.4-2.7l3.9-9
						c0.3-0.7,0.5-1.2,0.7-1.5l1.3-2.7l0.7-1.3v0c0.3-0.7,0.5-1.1,0.6-1.1c0.2,0,0.4,0.4,0.8,1.2L105.1,28z"/>
					<path id="Fill-12" class="st0" d="M121.3,30.1v5c0,0.3,0.1,0.5,0.2,0.5c0.1,0,0.3-0.1,0.7-0.4l1.4-1.2l2-1.7
						c2.7-2.3,4-3.9,4-4.7c0-0.3-0.1-0.5-0.4-0.7c-0.2-0.2-0.6-0.3-1-0.3c-0.3,0-0.5-0.1-0.5-0.4c0-0.2,0.2-0.4,0.5-0.4
						c0.4,0,0.8,0,1.2,0.1c1,0.1,1.8,0.2,2.2,0.2c0.3,0,0.7,0,1.1-0.1c1-0.1,1.7-0.2,2.1-0.2c0.3,0,0.5,0.1,0.5,0.4
						c0,0.2-0.2,0.3-0.6,0.4c-0.7,0.1-1.4,0.4-2.3,1c-0.9,0.6-2.1,1.6-3.7,3c-0.7,0.7-1.2,1.1-1.5,1.3c-0.8,0.7-1.2,1.1-1.2,1.5
						c0,0.2,0.2,0.6,0.7,1.2l1,1.4c2.4,3.2,4.2,5.3,5.3,6.4c0.8,0.7,1.8,1.3,3.2,1.7l0.3,0.1c0.2,0.1,0.4,0.2,0.3,0.5
						c0,0.2-0.2,0.3-0.4,0.3c-0.1,0-0.2,0-0.4,0c-0.9-0.1-1.7-0.1-2.4-0.1c-0.3,0-0.6,0-1,0.1c-0.6,0.1-1,0.1-1.2,0.1
						c-0.5,0-1-0.2-1.4-0.7c0,0-0.2-0.3-0.5-0.7c-0.8-1-1.9-2.3-3.2-3.9c-1.3-1.7-2.1-2.8-2.4-3.3c-0.3-0.4-0.5-0.6-0.7-0.6
						c-0.1,0-0.3,0.1-0.4,0.2l-0.4,0.4l-0.6,0.6c-0.3,0.2-0.4,0.5-0.5,0.7c-0.1,0.3-0.1,0.8-0.1,1.6v0.6c0,1.5,0.2,2.6,0.5,3.2
						c0.3,0.6,0.9,1,1.7,1c0.5,0,0.8,0.2,0.8,0.4c0,0.3-0.2,0.4-0.5,0.4c-0.2,0-0.5,0-0.9-0.1c-0.5-0.1-1.2-0.1-2-0.1
						c-1.1,0-2.1,0-3.1,0.1c-0.6,0.1-1.1,0.1-1.5,0.1s-0.6-0.1-0.6-0.4c0-0.2,0.1-0.3,0.4-0.3c0.7-0.1,1.2-0.4,1.4-0.9
						c0.3-0.5,0.4-1.3,0.4-2.5V29.9l0-0.5l-0.1-0.8c-0.1-0.5-0.4-0.9-0.8-1.1c-0.4-0.3-1-0.4-1.7-0.5c-0.2,0-0.4-0.1-0.4-0.1
						c-0.1-0.1-0.1-0.2-0.1-0.4c0-0.2,0.1-0.3,0.4-0.3c0.2,0,0.5,0,0.7,0c1,0.1,2.2,0.2,3.5,0.2c1.1,0,2.1,0,3.1-0.1
						c0.3,0,0.5,0,0.6-0.1c0.3,0,0.4,0.1,0.4,0.4c0,0.2-0.1,0.3-0.4,0.3c-0.8,0.2-1.3,0.5-1.6,0.8c-0.2,0.3-0.3,1-0.3,2.1
						L121.3,30.1z"/>
					<g id="Group-16" transform="translate(127.900709, 0.000000)">
						<g id="Clip-15">
						</g>
						<defs>
							<filter id="Adobe_OpacityMaskFilter_1_" filterUnits="userSpaceOnUse" x="8.5" y="25.6" width="12.9" height="20.4">
								<feColorMatrix  type="matrix" values="1 0 0 0 0  0 1 0 0 0  0 0 1 0 0  0 0 0 1 0"/>
							</filter>
						</defs>
						<mask maskUnits="userSpaceOnUse" x="8.5" y="25.6" width="12.9" height="20.4" id="mask-4_2_">
							<g class="st3">
								<polygon id="path-3_2_" class="st0" points="21.4,25.6 21.4,46 8.5,46 8.5,25.6 								"/>
							</g>
						</mask>
						<path id="Fill-14" class="st4" d="M14.4,25.6c0.9,0,1.8,0.2,2.7,0.5l1,0.4c0.4,0.2,0.8,0.3,0.9,0.3c0.1,0,0.3,0,0.4-0.1
							l0.6-0.3c0.1,0,0.2-0.1,0.2-0.1c0.2,0,0.3,0.2,0.3,0.5l0,1.2c0,0.2,0,0.4,0,0.5l0.2,1.4l0.1,1.3c0,0.1,0,0.2,0,0.3
							c0,0.4-0.1,0.6-0.4,0.6c-0.2,0-0.3-0.2-0.4-0.5c-0.3-1.3-1-2.5-2.2-3.5c-1.2-1-2.4-1.5-3.7-1.5c-0.9,0-1.7,0.3-2.3,0.9
							c-0.7,0.6-1,1.3-1,2.1c0,0.7,0.3,1.4,0.9,1.9c0.4,0.3,1.5,0.9,3.5,1.7c2.3,0.9,3.9,1.8,4.6,2.7c0.9,1.1,1.3,2.4,1.3,3.9
							c0,1.7-0.6,3.1-1.9,4.4c-1.2,1.2-2.7,1.9-4.3,1.9c-0.7,0-1.8-0.2-3.2-0.7c-0.7-0.2-1.2-0.4-1.5-0.4c-0.5-0.1-0.7-0.2-0.8-0.3
							c-0.1-0.1-0.1-0.3-0.2-0.7c0-0.5-0.2-1.1-0.4-2c-0.4-1.3-0.6-2.1-0.6-2.5c0-0.5,0.1-0.7,0.5-0.7c0.1,0,0.2,0.1,0.3,0.3
							c0.5,1.6,1.3,3,2.5,4.1c1.2,1.1,2.4,1.7,3.7,1.7c1,0,1.9-0.4,2.7-1.1c0.8-0.7,1.2-1.6,1.2-2.5c0-0.8-0.2-1.4-0.6-1.9
							c-0.4-0.5-1.1-0.9-2.1-1.4l-2.2-1c-2.1-0.9-3.6-1.8-4.3-2.6c-0.8-0.8-1.1-1.9-1.1-3.3c0-1.6,0.5-2.9,1.6-4
							C11.5,26.1,12.9,25.6,14.4,25.6"/>
					</g>
				</g>
				<g id="Group" transform="translate(152.000000, 3.000000)">
					<path id="Fill-17" class="st5" d="M10.7,30c0.2,0,0.5,0,0.8,0c0.3,0,0.5,0,0.8,0c0.3,0,0.5,0,0.8,0c0.3,0,0.5,0,0.8,0l-1.6-3.3
						L10.7,30z M17,34c-0.1,0-0.3,0-0.4,0h-0.4h-0.4c-0.1,0-0.2,0-0.4,0c-0.1-0.2-0.2-0.4-0.3-0.7c-0.1-0.3-0.2-0.6-0.4-0.9
						c-0.1-0.3-0.3-0.6-0.4-0.9c-0.1-0.3-0.3-0.6-0.4-0.9c-0.3,0-0.6,0-0.9,0c-0.3,0-0.6,0-0.9,0c-0.3,0-0.6,0-0.9,0
						c-0.3,0-0.6,0-0.9,0c-0.3,0.7-0.6,1.3-0.8,1.9c-0.2,0.6-0.4,1.1-0.6,1.5c-0.2,0-0.3,0-0.5,0c-0.2,0-0.4,0-0.5,0
						c0.8-1.5,1.5-3,2.2-4.5c0.7-1.5,1.5-3,2.2-4.5h0.3c0.2,0.5,0.5,1,0.7,1.6c0.3,0.6,0.5,1.2,0.8,1.8c0.3,0.6,0.6,1.2,0.8,1.8
						c0.3,0.6,0.5,1.1,0.8,1.6c0.2,0.5,0.5,0.9,0.7,1.3S16.9,33.8,17,34L17,34z"/>
					<path id="Fill-19" class="st5" d="M19.5,25.7c-0.2,0-0.4,0-0.6,0c-0.2,0-0.4,0-0.7,0c-0.2,0-0.4,0-0.6,0c-0.2,0-0.4,0-0.6,0.1
						c0-0.2,0.1-0.3,0.1-0.4c0-0.1,0-0.2-0.1-0.4c0.5,0,1,0,1.5,0c0.5,0,1,0,1.5,0c0.5,0,1,0,1.5,0c0.5,0,1,0,1.5,0
						c0,0.2-0.1,0.3-0.1,0.4c0,0.1,0,0.2,0.1,0.4c-0.2,0-0.3,0-0.6-0.1c-0.2,0-0.4,0-0.6,0c-0.2,0-0.4,0-0.7,0c-0.2,0-0.4,0-0.6,0
						c0,0.9,0,1.8,0,2.7v2.3c0,0.6,0,1.1,0,1.7c0,0.6,0,1.1,0.1,1.6c-0.2,0-0.4,0-0.6,0c-0.2,0-0.4,0-0.6,0c0-0.5,0-1.1,0.1-1.6
						c0-0.6,0-1.1,0-1.7v-2.3C19.5,27.5,19.5,26.6,19.5,25.7"/>
					<path id="Fill-21" class="st5" d="M30.1,26.7c0-0.6,0-1.1-0.1-1.7c0.1,0,0.2,0,0.3,0c0.1,0,0.2,0,0.3,0c0.1,0,0.2,0,0.3,0
						c0.1,0,0.2,0,0.3,0c0,0.6-0.1,1.1-0.1,1.7c0,0.6,0,1.1,0,1.7c0,1.1,0,2.1,0,2.9c0,0.8,0,1.5,0,2.2c0.6,0,1.3,0,1.8,0
						c0.6,0,1.2-0.1,1.9-0.2c0,0.2-0.1,0.3-0.1,0.4c0,0.1,0,0.2,0.1,0.4c-0.4,0-0.8,0-1.2,0h-1.2h-1.3c-0.4,0-0.8,0-1.3,0
						c0-0.5,0.1-1.1,0.1-1.6c0-0.6,0-1.1,0-1.7v-2.3C30.1,27.8,30.1,27.3,30.1,26.7"/>
					<path id="Fill-23" class="st5" d="M38.7,30c0.2,0,0.5,0,0.8,0c0.3,0,0.5,0,0.8,0c0.3,0,0.5,0,0.8,0c0.3,0,0.5,0,0.8,0l-1.6-3.3
						L38.7,30z M45,34c-0.1,0-0.3,0-0.4,0h-0.4h-0.4c-0.1,0-0.2,0-0.4,0c-0.1-0.2-0.2-0.4-0.3-0.7c-0.1-0.3-0.2-0.6-0.4-0.9
						c-0.1-0.3-0.3-0.6-0.4-0.9c-0.1-0.3-0.3-0.6-0.4-0.9c-0.3,0-0.6,0-0.9,0c-0.3,0-0.6,0-0.9,0c-0.3,0-0.6,0-0.9,0
						c-0.3,0-0.6,0-0.9,0c-0.3,0.7-0.6,1.3-0.8,1.9c-0.2,0.6-0.4,1.1-0.6,1.5c-0.2,0-0.3,0-0.5,0c-0.2,0-0.4,0-0.5,0
						c0.8-1.5,1.5-3,2.2-4.5c0.7-1.5,1.5-3,2.2-4.5h0.3c0.2,0.5,0.5,1,0.7,1.6c0.3,0.6,0.5,1.2,0.8,1.8c0.3,0.6,0.5,1.2,0.8,1.8
						c0.3,0.6,0.5,1.1,0.8,1.6c0.2,0.5,0.5,0.9,0.7,1.3C44.7,33.5,44.9,33.8,45,34L45,34z"/>
					<path id="Fill-25" class="st5" d="M54.2,29.5c0.3,0,0.6,0,0.9-0.1c0.3-0.1,0.6-0.2,0.8-0.3c0.2-0.2,0.5-0.4,0.6-0.7
						c0.2-0.3,0.2-0.7,0.2-1.1c0-0.4-0.1-0.7-0.2-0.9c-0.1-0.2-0.3-0.4-0.5-0.6c-0.2-0.1-0.4-0.2-0.7-0.3c-0.3,0-0.6-0.1-1-0.1h-1.2
						v3.9C53.5,29.4,53.9,29.5,54.2,29.5 M52.1,26.7c0-0.6,0-1.1-0.1-1.7c0.2,0,0.4,0,0.7,0c0.2,0,0.4,0,0.7,0c0.1,0,0.2,0,0.4,0
						c0.2,0,0.3,0,0.5,0c0.2,0,0.3,0,0.5,0c0.1,0,0.3,0,0.4,0c0.1,0,0.3,0,0.5,0c0.2,0,0.4,0,0.6,0.1c0.2,0,0.4,0.1,0.7,0.2
						c0.2,0.1,0.4,0.2,0.6,0.4c0.2,0.2,0.3,0.4,0.4,0.6c0.1,0.2,0.2,0.6,0.2,0.9c0,0.6-0.1,1-0.4,1.4c-0.3,0.4-0.6,0.6-1,0.8
						c-0.4,0.2-0.8,0.3-1.2,0.4C55,29.9,54.7,30,54.3,30c-0.2,0-0.4,0-0.6,0c-0.2,0-0.4,0-0.5,0v0.7c0,0.6,0,1.1,0,1.7
						c0,0.6,0,1.1,0.1,1.6c-0.2,0-0.4,0-0.7,0c-0.2,0-0.5,0-0.7,0c0-0.5,0.1-1.1,0.1-1.6c0-0.6,0-1.1,0-1.7v-2.3
						C52.1,27.8,52.1,27.3,52.1,26.7"/>
					<path id="Fill-27" class="st5" d="M60.7,30c0.2,0,0.5,0,0.8,0c0.3,0,0.5,0,0.8,0c0.3,0,0.5,0,0.8,0c0.3,0,0.5,0,0.8,0l-1.6-3.3
						L60.7,30z M67,34c-0.1,0-0.3,0-0.4,0h-0.4h-0.4c-0.1,0-0.2,0-0.4,0c-0.1-0.2-0.2-0.4-0.3-0.7c-0.1-0.3-0.2-0.6-0.4-0.9
						c-0.1-0.3-0.3-0.6-0.4-0.9c-0.1-0.3-0.3-0.6-0.4-0.9c-0.3,0-0.6,0-0.9,0c-0.3,0-0.6,0-0.9,0c-0.3,0-0.6,0-0.9,0
						c-0.3,0-0.6,0-0.9,0c-0.3,0.7-0.6,1.3-0.8,1.9c-0.2,0.6-0.4,1.1-0.6,1.5c-0.2,0-0.3,0-0.5,0c-0.2,0-0.4,0-0.5,0
						c0.8-1.5,1.5-3,2.2-4.5c0.7-1.5,1.5-3,2.2-4.5h0.3c0.2,0.5,0.5,1,0.7,1.6c0.3,0.6,0.5,1.2,0.8,1.8c0.3,0.6,0.5,1.2,0.8,1.8
						c0.3,0.6,0.5,1.1,0.8,1.6c0.2,0.5,0.5,0.9,0.7,1.3C66.7,33.5,66.9,33.8,67,34L67,34z"/>
					<path id="Fill-29" class="st5" d="M69.1,26.7c0-0.6,0-1.1-0.1-1.7c0.1,0,0.2,0,0.3,0c0.1,0,0.2,0,0.3,0s0.2,0,0.3,0
						c0.1,0,0.2,0,0.3,0c0,0.6-0.1,1.1-0.1,1.7c0,0.6,0,1.1,0,1.7c0,1.1,0,2.1,0,2.9c0,0.8,0,1.5,0,2.2c0.6,0,1.3,0,1.8,0
						c0.6,0,1.2-0.1,1.9-0.2c0,0.2-0.1,0.3-0.1,0.4c0,0.1,0,0.2,0.1,0.4c-0.4,0-0.8,0-1.2,0h-1.2h-1.3c-0.4,0-0.8,0-1.3,0
						c0-0.5,0-1.1,0.1-1.6c0-0.6,0-1.1,0-1.7v-2.3C69.1,27.8,69.1,27.3,69.1,26.7"/>
					<path id="Fill-31" class="st5" d="M84.4,27.7c-0.2-0.5-0.4-0.9-0.8-1.3c-0.3-0.3-0.7-0.6-1.2-0.7c-0.4-0.2-0.9-0.2-1.5-0.2
						c-0.5,0-1,0.1-1.4,0.2s-0.8,0.4-1.2,0.7c-0.3,0.3-0.6,0.8-0.8,1.3c-0.2,0.5-0.3,1.1-0.3,1.8c0,0.7,0.1,1.3,0.3,1.8
						c0.2,0.5,0.4,0.9,0.8,1.3c0.3,0.3,0.7,0.6,1.2,0.7c0.4,0.2,0.9,0.2,1.4,0.2c0.5,0,1-0.1,1.5-0.2c0.5-0.2,0.8-0.4,1.2-0.7
						c0.3-0.3,0.6-0.8,0.8-1.3c0.2-0.5,0.3-1.1,0.3-1.8C84.7,28.8,84.6,28.2,84.4,27.7 M76.4,27.6c0.2-0.6,0.6-1,1-1.4
						c0.4-0.4,1-0.7,1.6-0.9c0.6-0.2,1.3-0.3,2-0.3c0.7,0,1.4,0.1,2,0.3c0.6,0.2,1.1,0.5,1.6,0.9c0.4,0.4,0.8,0.9,1,1.4
						c0.2,0.6,0.4,1.2,0.4,1.9c0,0.7-0.1,1.4-0.4,1.9c-0.2,0.6-0.6,1-1,1.4c-0.4,0.4-1,0.7-1.6,0.9c-0.6,0.2-1.3,0.3-2,0.3
						c-0.7,0-1.4-0.1-2-0.3c-0.6-0.2-1.1-0.5-1.6-0.9c-0.4-0.4-0.8-0.9-1-1.4c-0.2-0.6-0.4-1.2-0.4-1.9C76,28.8,76.1,28.2,76.4,27.6
						"/>
					<path id="Fill-33" class="st5" d="M90.2,28.5c0.6,1.2,1.2,2.3,1.9,3.5c0.1-0.2,0.2-0.4,0.4-0.7s0.3-0.7,0.6-1
						c0.2-0.4,0.4-0.8,0.7-1.3c0.2-0.5,0.5-0.9,0.7-1.4c0.2-0.5,0.5-0.9,0.7-1.4c0.2-0.5,0.5-0.9,0.7-1.3H96
						c0.1,0.8,0.2,1.6,0.3,2.4c0.1,0.8,0.2,1.5,0.2,2.3c0.1,0.7,0.2,1.5,0.3,2.2c0.1,0.7,0.2,1.4,0.3,2.2c-0.1,0-0.2,0-0.3,0h-0.3
						h-0.3c-0.1,0-0.2,0-0.3,0c-0.1-1.1-0.2-2.2-0.3-3.3c-0.1-1.1-0.2-2.2-0.3-3.3h0c-0.6,1.1-1.2,2.2-1.7,3.2
						c-0.6,1.1-1.1,2.2-1.6,3.4h-0.1c-0.5-1.1-1-2.2-1.6-3.2c-0.5-1.1-1.1-2.2-1.7-3.3h0c-0.1,0.5-0.1,1.1-0.2,1.7
						c-0.1,0.6-0.1,1.2-0.2,1.8c-0.1,0.6-0.1,1.2-0.2,1.7c0,0.5-0.1,1-0.1,1.3c-0.1,0-0.3,0-0.4,0c-0.2,0-0.3,0-0.4,0
						c0.1-0.7,0.2-1.4,0.3-2.2c0.1-0.8,0.2-1.5,0.3-2.3c0.1-0.8,0.2-1.5,0.3-2.3c0.1-0.8,0.2-1.5,0.2-2.2h0.2
						C89,26.2,89.6,27.4,90.2,28.5"/>
					<path id="Fill-35" class="st5" d="M101.7,30c0.2,0,0.5,0,0.8,0c0.3,0,0.5,0,0.8,0c0.3,0,0.5,0,0.8,0c0.3,0,0.5,0,0.8,0
						l-1.6-3.3L101.7,30z M108,34c-0.1,0-0.3,0-0.4,0h-0.4h-0.4c-0.1,0-0.2,0-0.4,0c-0.1-0.2-0.2-0.4-0.3-0.7
						c-0.1-0.3-0.2-0.6-0.4-0.9c-0.1-0.3-0.3-0.6-0.4-0.9c-0.1-0.3-0.3-0.6-0.4-0.9c-0.3,0-0.6,0-0.9,0c-0.3,0-0.6,0-0.9,0
						c-0.3,0-0.6,0-0.9,0c-0.3,0-0.6,0-0.9,0c-0.3,0.7-0.6,1.3-0.8,1.9c-0.2,0.6-0.4,1.1-0.6,1.5c-0.2,0-0.3,0-0.5,0
						c-0.2,0-0.4,0-0.5,0c0.8-1.5,1.5-3,2.2-4.5c0.7-1.5,1.5-3,2.2-4.5h0.3c0.2,0.5,0.5,1,0.7,1.6c0.3,0.6,0.5,1.2,0.8,1.8
						c0.3,0.6,0.5,1.2,0.8,1.8c0.3,0.6,0.5,1.1,0.8,1.6c0.2,0.5,0.5,0.9,0.7,1.3C107.7,33.5,107.9,33.8,108,34L108,34z"/>
				</g>
			</g>
		</g>
	</g>
</g>
</svg>
